Data Manipulation and Plot in R
…
# dplyr

---

# tibble

```r
# install.packages("nycflights13")
data(flights, package = "nycflights13")
flights
```

```
# A tibble: 336,776 x 19
    year month   day dep_time sched_dep_time dep_delay arr_time sched_arr_time
   <int> <int> <int>    <int>          <int>     <dbl>    <int>          <int>
 1  2013     1     1      517            515         2      830            819
 2  2013     1     1      533            529         4      850            830
 3  2013     1     1      542            540         2      923            850
 4  2013     1     1      544            545        -1     1004           1022
 5  2013     1     1      554            600        -6      812            837
 6  2013     1     1      554            558        -4      740            728
 7  2013     1     1      555            600        -5      913            854
 8  2013     1     1      557            600        -3      709            723
 9  2013     1     1      557            600        -3      838            846
10  2013     1     1      558            600        -2      753            745
# ... with 336,766 more rows, and 11 more variables: arr_delay <dbl>,
#   carrier <chr>, flight <int>, tailnum <chr>, origin <chr>, dest <chr>,
#   air_time <dbl>, distance <dbl>, hour <dbl>, minute <dbl>, time_hour <dttm>
```

---

# select()

```r
flight1 <- select(flights, year:day, tailnum, arr_delay, dep_delay, distance, air_time)
flight1
```

```
# A tibble: 336,776 x 8
    year month   day tailnum arr_delay dep_delay distance air_time
   <int> <int> <int> <chr>       <dbl>     <dbl>    <dbl>    <dbl>
 1  2013     1     1 N14228         11         2     1400      227
 2  2013     1     1 N24211         20         4     1416      227
 3  2013     1     1 N619AA         33         2     1089      160
 4  2013     1     1 N804JB        -18        -1     1576      183
 5  2013     1     1 N668DN        -25        -6      762      116
 6  2013     1     1 N39463         12        -4      719      150
 7  2013     1     1 N516JB         19        -5     1065      158
 8  2013     1     1 N829AS        -14        -3      229       53
 9  2013     1     1 N593JB         -8        -3      944      140
10  2013     1     1 N3ALAA          8        -2      733      138
# ... with 336,766 more rows
```

---

# filter()

```r
filter(flight1, year %in% c(2012, 2013), 
       month == 1, day < 4)
```

```
# A tibble: 2,699 x 8
    year month   day tailnum arr_delay dep_delay distance air_time
   <int> <int> <int> <chr>       <dbl>     <dbl>    <dbl>    <dbl>
 1  2013     1     1 N14228         11         2     1400      227
 2  2013     1     1 N24211         20         4     1416      227
 3  2013     1     1 N619AA         33         2     1089      160
 4  2013     1     1 N804JB        -18        -1     1576      183
 5  2013     1     1 N668DN        -25        -6      762      116
 6  2013     1     1 N39463         12        -4      719      150
 7  2013     1     1 N516JB         19        -5     1065      158
 8  2013     1     1 N829AS        -14        -3      229       53
 9  2013     1     1 N593JB         -8        -3      944      140
10  2013     1     1 N3ALAA          8        -2      733      138
# ... with 2,689 more rows
```
…
```
# A tibble: 3 x 8
   year month   day tailnum arr_delay dep_delay distance air_time
  <int> <int> <int> <chr>       <dbl>     <dbl>    <dbl>    <dbl>
1  2013     8    12 N187DN          8        10     2475      338
2  2013     7     2 N26123        -33         0     2454      300
3  2013     5     7 N402UA          1        17     1167      159
```

```r
sample_frac(flight1, 0.002) # fixed fraction
```

```
# A tibble: 674 x 8
    year month   day tailnum arr_delay dep_delay distance air_time
   <int> <int> <int> <chr>       <dbl>     <dbl>    <dbl>    <dbl>
 1  2013    12     7 N827AS        -14        -8      228       50
 2  2013     9    11 N11187         NA        -9      645       NA
 3  2013     6     3 N596UA         25        -5     2586      347
 4  2013    11     8 N14568          1        13      569       99
 5  2013    10    18 N520JB        -34        -7     1598      193
 6  2013    10    11 N3AAAA        -15        -6      187       35
 7  2013     6     2 N258WN          2        -2      738      114
 8  2013     7     5 N715SW        -18        -2     1428      197
 9  2013     8     9 N576AA         17        -7      733      119
10  2013     5    14 N3FYAA        -37        -3     1389      186
# ... with 664 more rows
```

---

# arrange()

```r
arrange(flight1, year, month, day)
```

```
# A tibble: 336,776 x 8
    year month   day tailnum arr_delay dep_delay distance air_time
   <int> <int> <int> <chr>       <dbl>     <dbl>    <dbl>    <dbl>
 1  2013     1     1 N14228         11         2     1400      227
 2  2013     1     1 N24211         20         4     1416      227
 3  2013     1     1 N619AA         33         2     1089      160
 4  2013     1     1 N804JB        -18        -1     1576      183
 5  2013     1     1 N668DN        -25        -6      762      116
 6  2013     1     1 N39463         12        -4      719      150
 7  2013     1     1 N516JB         19        -5     1065      158
 8  2013     1     1 N829AS        -14        -3      229       53
 9  2013     1     1 N593JB         -8        -3      944      140
10  2013     1     1 N3ALAA          8        -2      733      138
# ... with 336,766 more rows
```

---

# arrange(desc())

```r
arrange(flight1, desc(arr_delay))
```

```
# A tibble: 336,776 x 8
    year month   day tailnum arr_delay dep_delay distance air_time
   <int> <int> <int> <chr>       <dbl>     <dbl>    <dbl>    <dbl>
 1  2013     1     9 N384HA       1272      1301     4983      640
 2  2013     6    15 N504MQ       1127      1137      483       74
 3  2013     1    10 N517MQ       1109      1126      719      111
 4  2013     9    20 N338AA       1007      1014     2586      354
 5  2013     7    22 N665MQ        989      1005      589       96
 6  2013     4    10 N959DL        931       960     1005      139
 7  2013     3    17 N927DA        915       911     1020      167
 8  2013     7    22 N6716C        895       898      762      109
 9  2013    12     5 N5DMAA        878       896     1085      149
10  2013     5     3 N523MQ        875       878      719      112
# ... with 336,766 more rows
```

---

# mutate()

```r
mutate(flight1,
       gain = arr_delay - dep_delay,
       speed = distance / air_time * 60)
```

```
# A tibble: 336,776 x 10
    year month   day tailnum arr_delay dep_delay distance air_time  gain speed
   <int> <int> <int> <chr>       <dbl>     <dbl>    <dbl>    <dbl> <dbl> <dbl>
 1  2013     1     1 N14228         11         2     1400      227     9  370.
 2  2013     1     1 N24211         20         4     1416      227    16  374.
 3  2013     1     1 N619AA         33         2     1089      160    31  408.
 4  2013     1     1 N804JB        -18        -1     1576      183   -17  517.
 5  2013     1     1 N668DN        -25        -6      762      116   -19  394.
 6  2013     1     1 N39463         12        -4      719      150    16  288.
 7  2013     1     1 N516JB         19        -5     1065      158    24  404.
 8  2013     1     1 N829AS        -14        -3      229       53   -11  259.
 9  2013     1     1 N593JB         -8        -3      944      140    -5  405.
10  2013     1     1 N3ALAA          8        -2      733      138    10  319.
# ... with 336,766 more rows
```
…
# select(mutate())

```r
select(
  mutate(flight1, 
         gain = arr_delay - dep_delay, 
         speed = distance / air_time * 60
  ),
  gain, speed
)
```

```
# A tibble: 336,776 x 2
    gain speed
   <dbl> <dbl>
 1     9  370.
 2    16  374.
 3    31  408.
 4   -17  517.
 5   -19  394.
 6    16  288.
 7    24  404.
 8   -11  259.
 9    -5  405.
10    10  319.
# ... with 336,766 more rows
```

---

# transmute() == select(mutate())

```r
transmute(flight1, 
          gain = arr_delay - dep_delay,
          speed = distance / air_time * 60)
```

```
# A tibble: 336,776 x 2
    gain speed
   <dbl> <dbl>
 1     9  370.
 2    16  374.
 3    31  408.
 4   -17  517.
 5   -19  394.
 6    16  288.
 7    24  404.
 8   -11  259.
 9    -5  405.
10    10  319.
# ... with 336,766 more rows
```
…
---

# pip operator %>% 

```r
flight1 %>% 
  mutate(gain = arr_delay - dep_delay, 
         speed = distance / air_time * 60) %>% 
  select(gain, speed)
```

```
# A tibble: 336,776 x 2
    gain speed
   <dbl> <dbl>
 1     9  370.
 2    16  374.
 3    31  408.
 4   -17  517.
 5   -19  394.
 6    16  288.
 7    24  404.
 8   -11  259.
 9    -5  405.
10    10  319.
# ... with 336,766 more rows
```
…
---

# pivot_longer()

```r
student_long <- pivot_longer(student, 
                             cols = c("math", "chinese", "psychology"), # -ID 
                             names_to = "subjects", values_to = "score")
student_long
```

```
# A tibble: 36 x 3
   ID    subjects   score
   <fct> <chr>      <dbl>
 1 A     math        51.7
 2 A     chinese      4  
 3 A     psychology  59  
 4 B     math        27.7
 5 B     chinese     12  
 6 B     psychology  59  
 7 C     math        40.9
 8 C     chinese     20  
 9 C     psychology  61  
10 D     math        64.7
# ... with 26 more rows
```
…
